%YAML 1.1
%TAG !u! tag:unity3d.com,2011:
--- !u!114 &11400000
MonoBehaviour:
  m_ObjectHideFlags: 0
  m_PrefabParentObject: {fileID: 0}
  m_PrefabInternal: {fileID: 0}
  m_GameObject: {fileID: 0}
  m_Enabled: 1
  m_EditorHideFlags: 0
  m_Script: {fileID: 11500000, guid: e7f0f3659406e354a90273a9bb39fb15, type: 3}
  m_Name: Monster2
  m_EditorClassIdentifier: 
  speed: 2
  damage: 7
  range: 1
  health: 60
  bounty: 15
  requiredBuilding: 
  cost: 0
  attackSpeed: 1
