%YAML 1.1
%TAG !u! tag:unity3d.com,2011:
--- !u!1045 &1
EditorBuildSettings:
  m_ObjectHideFlags: 0
  serializedVersion: 2
  m_Scenes:
  - enabled: 1
    path: Assets/Scenes/Main.unity
    guid: 9b82a63b2c1454e40942a26b0c8c23cf
  - enabled: 1
    path: Assets/Scenes/Win.unity
    guid: e7ef02ffcbb23c14eaf55034d30e0ff0
  - enabled: 1
    path: Assets/Scenes/Loose.unity
    guid: dd2fe6650c4682b499846935441a4b4f
  m_configObjects: {}
