%YAML 1.1
%TAG !u! tag:unity3d.com,2011:
--- !u!114 &11400000
MonoBehaviour:
  m_ObjectHideFlags: 0
  m_PrefabParentObject: {fileID: 0}
  m_PrefabInternal: {fileID: 0}
  m_GameObject: {fileID: 0}
  m_Enabled: 1
  m_EditorHideFlags: 0
  m_Script: {fileID: 11500000, guid: 820e1d0a02894b4ea464076959acd222, type: 3}
  m_Name: RecruitAChef
  m_EditorClassIdentifier: 
  title: 'Recruit a chef '
  description: 'Each unit gains +20% health.  Cost : 20 souls.'
  flavorText: A hearty meal lifts the spirits.
